
-------------- ALGORITHM (3) clever: (1) reorder:(0) ----------------
0.999 pool: 20000  nq: 0 qId: 100 b: 50000 3:CRU(1)    t_t: 0.000201251  cost: 509  costRatio: 191201 t_r: 1 t_w: 1 p_r: 0 i_r: 0 a_r: 0 p_w: 0 i_w: 0 a_w: 0 p_hit: 0 i_hit: 0 a_hit: 0 t_hit: 0 history0 threads: 1 reorder: 0

